[version]
5.16
[errors]
[syntax]
comment;1,1,1,11,0
directive;2,1,2,7,0
directive;3,1,3,7,0
directive;4,1,4,3,0
directive;6,1,6,3,0
comment;8,1,8,8,0
mnemonic;9,5,9,7,0
mnemonic;10,5,10,7,0
mnemonic;11,5,11,7,0
symbolReference;13,10,13,24,0
mnemonic;13,5,13,7,0
mnemonic;14,5,14,7,0
symbolReference;16,9,16,15,0
mnemonic;16,5,16,7,0
macroExecution;19,5,19,20,0
symbolReference;19,22,19,36,0
symbolReference;21,9,21,25,0
mnemonic;21,5,21,7,0
macroExecution;22,5,22,18,0
symbolReference;23,9,23,19,0
mnemonic;23,5,23,7,0
mnemonic;24,5,24,7,0
label;25,1,25,14,0
symbolReference;26,9,26,17,0
mnemonic;26,5,26,7,0
mnemonic;27,5,27,7,0
symbolReference;28,10,28,18,0
mnemonic;28,5,28,7,0
symbolReference;29,9,29,14,0
mnemonic;29,5,29,7,0
symbolReference;30,10,30,19,0
mnemonic;30,5,30,7,0
symbolReference;31,9,31,21,0
mnemonic;31,5,31,7,0
symbolReference;32,9,32,22,0
mnemonic;32,5,32,7,0
symbolReference;33,9,33,21,0
mnemonic;33,5,33,7,0
label;34,1,34,7,0
macroExecution;35,5,35,21,0
mnemonic;36,5,36,7,0
label;37,1,37,2,0
directive;38,1,38,4,0
symbolReference;39,15,39,15,0
operator;39,16,39,16,0
operator;39,14,39,14,0
mnemonic;39,5,39,7,0
symbolReference;38,14,38,14,0
operator;38,15,38,15,0
symbolReference;38,21,38,21,0
operator;38,22,38,23,0
mnemonic;41,5,41,7,0
mnemonic;42,5,42,7,0
symbolReference;43,9,43,10,0
mnemonic;43,5,43,7,0
symbolReference;44,9,44,23,0
mnemonic;44,5,44,7,0
macroExecution;45,5,45,12,0
symbolReference;45,14,45,22,0
symbolReference;46,9,46,23,0
mnemonic;46,5,46,7,0
label;47,1,47,5,0
directive;48,5,48,8,0
symbolReference;49,13,49,21,0
symbolReference;49,25,49,25,0
operator;49,23,49,23,0
mnemonic;49,9,49,11,0
symbolReference;50,13,50,18,0
mnemonic;50,9,50,11,0
symbolReference;51,13,51,14,0
mnemonic;51,9,51,11,0
symbolReference;52,13,52,16,0
mnemonic;52,9,52,11,0
label;53,1,53,2,0
mnemonic;54,9,54,11,0
label;55,1,55,5,0
symbolReference;56,13,56,16,0
symbolReference;56,18,56,18,0
operator;56,19,56,19,0
operator;56,17,56,17,0
mnemonic;56,9,56,11,0
mnemonic;57,9,57,11,0
symbolReference;58,13,58,14,0
mnemonic;58,9,58,11,0
mnemonic;59,9,59,11,0
symbolReference;60,13,60,14,0
symbolReference;60,16,60,16,0
operator;60,17,60,17,0
operator;60,15,60,15,0
mnemonic;60,9,60,11,0
symbolReference;61,14,61,31,0
mnemonic;61,9,61,11,0
symbolReference;62,13,62,22,0
symbolReference;62,24,62,24,0
operator;62,25,62,25,0
operator;62,23,62,23,0
mnemonic;62,9,62,11,0
mnemonic;63,9,63,11,0
symbolReference;64,13,64,23,0
symbolReference;64,25,64,25,0
operator;64,26,64,26,0
operator;64,24,64,24,0
mnemonic;64,9,64,11,0
symbolReference;65,13,65,13,0
mnemonic;65,9,65,11,0
label;66,1,66,2,0
operator;67,14,67,14,0
mnemonic;67,9,67,11,0
symbolReference;68,13,68,14,0
symbolReference;68,16,68,16,0
operator;68,17,68,17,0
operator;68,15,68,15,0
mnemonic;68,9,68,11,0
label;69,1,69,2,0
mnemonic;70,9,70,11,0
symbolReference;71,13,71,16,0
mnemonic;71,9,71,11,0
label;72,5,72,9,0
symbolReference;48,20,48,20,0
operator;48,21,48,22,0
symbolReference;48,25,48,25,0
operator;48,26,48,27,0
symbolReference;75,9,75,12,0
mnemonic;75,5,75,7,0
label;76,1,76,18,0
macroExecution;77,5,77,31,0
symbolReference;77,37,77,47,0
symbolReference;77,50,77,60,0
mnemonic;78,5,78,7,0
label;79,1,79,12,0
directive;80,5,80,9,0
directive;81,5,81,9,0
directive;82,5,82,9,0
label;84,1,84,6,0
directive;85,5,85,9,0
label;86,1,86,6,0
directive;87,5,87,9,0
label;88,1,88,9,0
directive;89,5,89,9,0
label;90,1,90,12,0
directive;91,5,91,9,0
directive;92,1,92,7,0
directive;93,1,93,7,0
label;94,1,94,12,0
directive;95,1,95,7,0
directive;96,1,96,7,0
directive;97,1,97,7,0
label;98,1,98,24,0
directive;99,5,99,11,0
directive;100,5,100,11,0
label;101,1,101,13,0
directive;102,5,102,9,0
symbolReference;102,16,102,23,0
symbolReference;102,30,102,30,0
operator;102,29,102,29,0
operator;102,25,102,25,0
operator;102,15,102,15,0
label;103,1,103,13,0
directive;104,5,104,9,0
symbolReference;104,16,104,23,0
symbolReference;104,30,104,30,0
operator;104,29,104,29,0
operator;104,25,104,25,0
operator;104,15,104,15,0
label;105,1,105,15,0
macroExecution;106,5,106,12,0
symbolReference;106,14,106,26,0
mnemonic;107,5,107,7,0
label;108,1,108,12,0
mnemonic;110,5,110,7,0
label;111,1,111,2,0
mnemonic;111,5,111,7,0
symbolReference;112,9,112,10,0
mnemonic;112,5,112,7,0
symbolReference;114,9,114,19,0
mnemonic;114,5,114,7,0
macroExecution;115,5,115,21,0
symbolReference;115,23,115,45,0
symbolReference;115,48,115,70,0
operator;115,71,115,71,0
mnemonic;117,5,117,7,0
label;118,1,118,2,0
mnemonic;118,5,118,7,0
symbolReference;119,9,119,10,0
mnemonic;119,5,119,7,0
symbolReference;121,10,121,24,0
operator;121,26,121,26,0
mnemonic;121,5,121,7,0
mnemonic;122,5,122,7,0
macroExecution;123,5,123,21,0
symbolReference;123,23,123,45,0
symbolReference;123,48,123,70,0
operator;123,71,123,71,0
mnemonic;124,5,124,7,0
symbolReference;125,9,125,19,0
mnemonic;125,5,125,7,0
macroExecution;127,5,127,10,0
directive;1,1,1,4,1
functionCall;1,16,1,25,1
directive;2,1,2,6,1
directive;3,5,3,9,1
symbolReference;3,11,3,17,1
functionCall;3,38,3,48,1
operator;3,36,3,36,1
objFunctionCall;3,19,3,25,1
directive;5,1,5,6,1
mnemonic;6,2,6,4,1
symbolReference;7,8,7,17,1
operator;7,7,7,7,1
mnemonic;7,2,7,4,1
mnemonic;8,2,8,4,1
symbolReference;9,8,9,17,1
operator;9,7,9,7,1
mnemonic;9,2,9,4,1
mnemonic;10,2,10,4,1
symbolReference;12,8,12,11,1
operator;12,7,12,7,1
mnemonic;12,2,12,4,1
mnemonic;13,2,13,4,1
directive;14,2,14,4,1
symbolReference;14,6,14,9,1
operator;14,10,14,10,1
mnemonic;15,3,15,5,1
mnemonic;16,3,16,5,1
mnemonic;17,3,17,5,1
mnemonic;19,3,19,5,1
mnemonic;20,3,20,5,1
mnemonic;21,3,21,5,1
mnemonic;23,2,23,4,1
directive;27,1,27,6,1
comment;28,13,28,40,1
comment;30,13,30,40,1
comment;32,13,32,40,1
comment;34,5,34,17,1
comment;35,5,35,14,1
comment;36,5,36,17,1
comment;37,4,37,15,1
mnemonic;28,2,28,4,1
mnemonic;29,2,29,4,1
mnemonic;30,2,30,4,1
mnemonic;31,2,31,4,1
mnemonic;32,2,32,4,1
label;37,1,37,2,1
directive;39,1,39,6,1
comment;40,2,40,13,1
comment;41,5,41,22,1
comment;44,5,44,17,1
comment;46,13,46,89,1
comment;48,13,48,44,1
comment;49,13,49,44,1
comment;50,13,50,17,1
mnemonic;42,5,42,7,1
mnemonic;43,5,43,7,1
mnemonic;45,2,45,4,1
mnemonic;46,2,46,4,1
mnemonic;47,2,47,4,1
mnemonic;48,2,48,4,1
mnemonic;49,2,49,4,1
mnemonic;50,2,50,4,1
directive;52,1,52,6,1
mnemonic;53,2,53,4,1
label;54,1,54,2,1
directive;55,2,55,5,1
symbolReference;56,7,56,21,1
symbolReference;56,23,56,23,1
operator;56,24,56,24,1
operator;56,22,56,22,1
mnemonic;56,3,56,5,1
symbolReference;57,7,57,14,1
symbolReference;57,16,57,16,1
operator;57,17,57,17,1
operator;57,15,57,15,1
mnemonic;57,3,57,5,1
symbolReference;58,7,58,21,1
operator;58,22,58,22,1
symbolReference;58,28,58,28,1
operator;58,29,58,29,1
operator;58,27,58,27,1
mnemonic;58,3,58,5,1
symbolReference;59,13,59,13,1
operator;59,14,59,14,1
operator;59,12,59,12,1
mnemonic;59,3,59,5,1
symbolReference;55,16,55,16,1
operator;55,17,55,17,1
symbolReference;55,21,55,21,1
operator;55,22,55,23,1
mnemonic;61,5,61,7,1
mnemonic;62,5,62,7,1
symbolReference;63,9,63,10,1
mnemonic;63,5,63,7,1
directive;69,1,69,6,1
mnemonic;70,5,70,7,1
mnemonic;71,5,71,7,1
mnemonic;72,5,72,7,1
mnemonic;73,5,73,7,1
mnemonic;75,2,75,4,1
mnemonic;76,2,76,4,1
directive;78,1,78,6,1
mnemonic;79,2,79,4,1
mnemonic;80,2,80,4,1
directive;82,1,82,6,1
comment;96,1,96,44,1
comment;97,1,97,75,1
comment;99,1,99,62,1
symbolReference;83,15,83,21,1
operator;83,22,83,22,1
functionCall;83,10,83,13,1
operator;83,25,83,25,1
mnemonic;83,5,83,7,1
mnemonic;84,2,84,4,1
label;85,1,85,5,1
symbolReference;86,6,86,17,1
mnemonic;86,2,86,4,1
symbolReference;87,6,87,20,1
mnemonic;87,2,87,4,1
mnemonic;88,2,88,4,1
symbolReference;89,6,89,9,1
mnemonic;89,2,89,4,1
symbolReference;90,6,90,9,1
operator;90,11,90,11,1
mnemonic;90,2,90,4,1
symbolReference;91,6,91,9,1
operator;91,11,91,11,1
mnemonic;91,2,91,4,1
mnemonic;92,2,92,4,1
symbolReference;93,6,93,9,1
mnemonic;93,2,93,4,1
directive;100,1,100,6,1
comment;120,1,120,62,1
directive;101,2,101,5,1
directive;102,2,102,5,1
directive;103,2,103,4,1
symbolReference;103,8,103,14,1
operator;103,7,103,7,1
directive;104,3,104,7,1
symbolReference;104,9,104,14,1
directive;105,3,105,7,1
symbolReference;105,9,105,12,1
directive;107,2,107,5,1
directive;108,3,108,6,1
symbolReference;109,16,109,16,1
operator;109,14,109,14,1
symbolReference;109,23,109,23,1
operator;109,22,109,22,1
operator;109,18,109,18,1
mnemonic;109,4,109,6,1
symbolReference;110,16,110,16,1
operator;110,14,110,14,1
symbolReference;110,23,110,23,1
operator;110,22,110,22,1
operator;110,18,110,18,1
operator;110,25,110,25,1
mnemonic;110,4,110,6,1
symbolReference;111,8,111,15,1
symbolReference;111,19,111,19,1
operator;111,17,111,17,1
symbolReference;111,26,111,26,1
operator;111,25,111,25,1
operator;111,21,111,21,1
mnemonic;111,4,111,6,1
symbolReference;112,8,112,15,1
symbolReference;112,19,112,19,1
operator;112,17,112,17,1
symbolReference;112,26,112,26,1
operator;112,25,112,25,1
operator;112,21,112,21,1
operator;112,28,112,28,1
mnemonic;112,4,112,6,1
symbolReference;108,17,108,17,1
operator;108,18,108,18,1
symbolReference;108,23,108,23,1
operator;108,24,108,25,1
symbolReference;114,7,114,16,1
symbolReference;114,23,114,23,1
operator;114,22,114,22,1
operator;114,18,114,18,1
mnemonic;114,3,114,5,1
symbolReference;115,7,115,14,1
symbolReference;115,21,115,21,1
operator;115,20,115,20,1
operator;115,16,115,16,1
operator;115,22,115,22,1
mnemonic;115,3,115,5,1
symbolReference;116,7,116,17,1
symbolReference;116,24,116,24,1
operator;116,23,116,23,1
operator;116,19,116,19,1
mnemonic;116,3,116,5,1
symbolReference;117,18,117,18,1
operator;117,17,117,17,1
operator;117,13,117,13,1
operator;117,19,117,19,1
mnemonic;117,3,117,5,1
symbolReference;107,13,107,18,1
symbolReference;107,21,107,21,1
symbolReference;107,23,107,26,1
operator;107,22,107,22,1
symbolReference;107,29,107,29,1
operator;107,30,107,31,1
directive;121,1,121,6,1
directive;122,2,122,5,1
directive;123,3,123,6,1
symbolReference;124,16,124,16,1
operator;124,14,124,14,1
symbolReference;124,23,124,23,1
operator;124,22,124,22,1
operator;124,18,124,18,1
operator;124,25,124,25,1
mnemonic;124,4,124,6,1
symbolReference;125,16,125,16,1
operator;125,14,125,14,1
symbolReference;125,23,125,23,1
operator;125,22,125,22,1
operator;125,18,125,18,1
mnemonic;125,4,125,6,1
symbolReference;126,8,126,15,1
symbolReference;126,19,126,19,1
operator;126,17,126,17,1
symbolReference;126,26,126,26,1
operator;126,25,126,25,1
operator;126,21,126,21,1
operator;126,28,126,28,1
mnemonic;126,4,126,6,1
symbolReference;127,8,127,15,1
symbolReference;127,19,127,19,1
operator;127,17,127,17,1
symbolReference;127,26,127,26,1
operator;127,25,127,25,1
operator;127,21,127,21,1
mnemonic;127,4,127,6,1
symbolReference;123,18,123,18,1
operator;123,19,123,19,1
symbolReference;123,23,123,23,1
operator;123,24,123,25,1
symbolReference;122,16,122,16,1
operator;122,17,122,17,1
symbolReference;122,22,122,22,1
operator;122,23,122,24,1
directive;130,2,130,5,1
symbolReference;131,7,131,16,1
symbolReference;131,23,131,23,1
operator;131,22,131,22,1
operator;131,18,131,18,1
mnemonic;131,3,131,5,1
symbolReference;132,7,132,14,1
symbolReference;132,21,132,21,1
operator;132,20,132,20,1
operator;132,16,132,16,1
mnemonic;132,3,132,5,1
symbolReference;133,7,133,17,1
symbolReference;133,24,133,24,1
operator;133,23,133,23,1
operator;133,19,133,19,1
mnemonic;133,3,133,5,1
symbolReference;134,18,134,18,1
operator;134,17,134,17,1
operator;134,13,134,13,1
mnemonic;134,3,134,5,1
symbolReference;130,16,130,16,1
operator;130,17,130,17,1
symbolReference;130,22,130,22,1
operator;130,23,130,24,1
directive;137,1,137,6,1
symbolReference;138,8,138,15,1
operator;138,7,138,7,1
mnemonic;138,2,138,4,1
symbolReference;139,9,139,11,1
operator;139,13,139,13,1
mnemonic;139,5,139,7,1
symbolReference;140,11,140,18,1
operator;140,10,140,10,1
mnemonic;140,5,140,7,1
symbolReference;141,9,141,11,1
operator;141,12,141,12,1
mnemonic;141,5,141,7,1
mnemonic;142,5,142,7,1
label;143,1,143,4,1
symbolReference;144,9,144,16,1
mnemonic;144,5,144,7,1
mnemonic;145,5,145,7,1
label;146,1,146,2,1
mnemonic;146,5,146,7,1
symbolReference;147,9,147,10,1
mnemonic;147,5,147,7,1
symbolReference;148,9,148,11,1
operator;148,12,148,12,1
mnemonic;148,5,148,7,1
symbolReference;149,9,149,10,1
mnemonic;149,5,149,7,1
symbolReference;150,9,150,11,1
operator;150,12,150,12,1
mnemonic;150,5,150,7,1
label;151,1,151,2,1
symbolReference;151,9,151,11,1
operator;151,12,151,12,1
mnemonic;151,5,151,7,1
symbolReference;152,11,152,18,1
operator;152,19,152,19,1
operator;152,10,152,10,1
mnemonic;152,5,152,7,1
symbolReference;153,9,153,11,1
operator;153,13,153,13,1
mnemonic;153,5,153,7,1
symbolReference;154,9,154,11,1
operator;154,12,154,12,1
mnemonic;154,5,154,7,1
symbolReference;155,11,155,18,1
operator;155,19,155,19,1
operator;155,10,155,10,1
mnemonic;155,5,155,7,1
symbolReference;156,9,156,11,1
operator;156,13,156,13,1
mnemonic;156,5,156,7,1
symbolReference;157,10,157,20,1
mnemonic;157,5,157,7,1
ppDirective;1,1,1,11,2
directive;3,1,3,6,2
directive;4,1,4,6,2
comment;6,1,6,35,2
directive;7,1,7,6,2
directive;8,1,8,6,2
directive;9,1,9,6,2
directive;10,1,10,6,2
directive;11,1,11,6,2
directive;12,1,12,6,2
comment;14,1,14,49,2
directive;15,1,15,6,2
directive;16,1,16,6,2
directive;17,1,17,6,2
directive;18,1,18,6,2
directive;19,1,19,6,2
directive;20,1,20,6,2
directive;21,1,21,6,2
directive;22,1,22,6,2
directive;23,1,23,6,2
directive;24,1,24,6,2
directive;25,1,25,6,2
directive;26,1,26,6,2
directive;27,1,27,6,2
directive;28,1,28,6,2
directive;29,1,29,6,2
directive;30,1,30,6,2
comment;31,1,31,41,2
directive;32,1,32,6,2
directive;33,1,33,6,2
directive;34,1,34,6,2
symbolReference;34,22,34,27,2
directive;36,1,36,6,2
comment;36,25,36,32,2
directive;37,1,37,6,2
symbolReference;37,26,37,33,2
operator;37,35,37,35,2
directive;38,1,38,6,2
comment;38,28,38,35,2
comment;39,1,39,63,2
directive;40,1,40,6,2
directive;42,1,42,6,2
directive;43,1,43,6,2
directive;44,1,44,6,2
directive;45,2,45,7,2
directive;47,1,47,6,2
directive;48,1,48,6,2
operator;48,27,48,27,2
directive;49,1,49,6,2
directive;50,1,50,6,2
directive;51,1,51,6,2
directive;52,1,52,6,2
directive;53,1,53,6,2
comment;53,27,53,31,2
directive;54,1,54,6,2
directive;55,1,55,6,2
directive;56,1,56,6,2
comment;1,1,1,15,3
comment;2,1,2,22,3
directive;3,1,3,7,3
comment;7,1,7,70,3
comment;9,1,9,20,3
comment;10,1,10,46,3
comment;11,1,11,49,3
label;5,1,5,16,3
directive;12,1,12,6,3
functionCall;12,19,12,29,3
directive;14,1,14,4,3
functionCall;14,13,14,16,3
directive;15,1,15,4,3
functionCall;15,14,15,17,3
directive;16,1,16,4,3
directive;17,1,17,4,3
directive;18,1,18,4,3
directive;19,1,19,4,3
directive;20,1,20,4,3
directive;21,1,21,4,3
directive;22,1,22,4,3
directive;23,1,23,4,3
directive;24,5,24,9,3
symbolReference;24,11,24,11,3
directive;25,5,25,8,3
directive;26,9,26,13,3
symbolReference;26,15,26,15,3
directive;27,9,27,13,3
symbolReference;27,15,27,15,3
directive;28,9,28,13,3
symbolReference;28,15,28,23,3
directive;30,9,30,12,3
directive;31,13,31,17,3
symbolReference;31,19,31,19,3
directive;32,13,32,16,3
directive;33,17,33,21,3
symbolReference;33,23,33,26,3
symbolReference;33,30,33,37,3
symbolReference;33,48,33,48,3
symbolReference;33,50,33,51,3
operator;33,49,33,49,3
symbolReference;33,53,33,53,3
symbolReference;33,55,33,56,3
operator;33,54,33,54,3
objFunctionCall;33,39,33,46,3
directive;34,17,34,21,3
symbolReference;34,23,34,23,3
symbolReference;34,48,34,51,3
functionCall;34,27,34,46,3
directive;36,17,36,19,3
symbolReference;36,21,36,21,3
operator;36,22,36,23,3
directive;37,21,37,25,3
symbolReference;37,27,37,35,3
symbolReference;37,39,37,39,3
directive;39,17,39,21,3
symbolReference;39,23,39,23,3
symbolReference;39,27,39,27,3
symbolReference;39,32,39,32,3
operator;39,33,39,34,3
symbolReference;39,55,39,55,3
symbolReference;39,57,39,58,3
operator;39,56,39,56,3
functionCall;39,51,39,53,3
symbolReference;39,50,39,62,3
symbolReference;39,72,39,72,3
symbolReference;39,74,39,75,3
operator;39,73,39,73,3
functionCall;39,68,39,70,3
operator;39,66,39,66,3
operator;39,63,39,63,3
functionCall;39,44,39,46,3
symbolReference;39,31,39,80,3
operator;39,29,39,29,3
symbolReference;32,28,32,29,3
operator;32,30,32,30,3
symbolReference;32,34,32,35,3
operator;32,36,32,37,3
symbolReference;30,24,30,25,3
operator;30,26,30,26,3
symbolReference;30,30,30,31,3
operator;30,32,30,33,3
directive;43,9,43,13,3
symbolReference;43,15,43,19,3
symbolReference;43,25,43,25,3
objFunctionCall;43,21,43,23,3
directive;44,9,44,13,3
symbolReference;44,15,44,20,3
symbolReference;44,26,44,34,3
objFunctionCall;44,22,44,24,3
symbolReference;25,20,25,20,3
operator;25,21,25,21,3
symbolReference;25,26,25,26,3
operator;25,27,25,28,3
symbolReference;23,16,23,16,3
operator;23,17,23,17,3
symbolReference;23,22,23,22,3
operator;23,23,23,24,3
directive;49,1,49,7,3
symbolReference;49,36,49,40,3
objFunctionCall;49,42,49,45,3
directive;50,1,50,7,3
symbolReference;50,37,50,42,3
objFunctionCall;50,44,50,47,3
directive;52,1,52,9,3
comment;53,1,53,49,3
directive;54,1,54,5,3
directive;55,1,55,5,3
directive;56,1,56,4,3
comment;59,1,59,49,3
directive;57,5,57,9,3
symbolReference;57,11,57,15,3
symbolReference;57,21,57,21,3
objFunctionCall;57,17,57,19,3
operator;57,23,57,23,3
symbolReference;56,14,56,14,3
symbolReference;56,16,56,20,3
objFunctionCall;56,22,56,25,3
operator;56,15,56,15,3
symbolReference;56,30,56,30,3
operator;56,31,56,32,3
directive;60,1,60,5,3
directive;61,1,61,5,3
directive;62,1,62,5,3
directive;64,1,64,5,3
symbolReference;64,11,64,13,3
directive;65,1,65,5,3
symbolReference;65,11,65,15,3
directive;66,1,66,4,3
directive;67,5,67,9,3
symbolReference;67,11,67,16,3
symbolReference;67,22,67,22,3
objFunctionCall;67,18,67,20,3
symbolReference;66,14,66,14,3
symbolReference;66,16,66,21,3
objFunctionCall;66,23,66,26,3
operator;66,15,66,15,3
symbolReference;66,31,66,31,3
operator;66,32,66,33,3
directive;69,1,69,5,3
symbolReference;69,11,69,15,3
directive;70,1,70,5,3
symbolReference;70,11,70,16,3
directive;71,1,71,5,3
symbolReference;71,11,71,14,3
directive;72,1,72,5,3
symbolReference;72,11,72,15,3
directive;1,2,1,8,4
comment;3,1,3,12,4
comment;4,1,4,12,4
comment;5,1,5,12,4
comment;6,1,6,12,4
comment;7,1,7,12,4
comment;8,1,8,12,4
comment;9,1,9,12,4
comment;10,1,10,12,4
comment;11,1,11,12,4
comment;12,1,12,12,4
comment;13,1,13,12,4
comment;14,1,14,12,4
comment;15,1,15,12,4
comment;16,1,16,12,4
comment;17,1,17,12,4
comment;18,1,18,12,4
comment;19,1,36,2,4
directive;37,2,37,5,4
comment;56,1,73,4,4
functionCall;37,19,37,22,4
functionCall;38,13,38,15,4
functionCall;39,13,39,15,4
functionCall;40,4,40,6,4
functionCall;41,4,41,6,4
functionCall;42,4,42,6,4
functionCall;43,4,43,6,4
functionCall;44,4,44,6,4
functionCall;45,4,45,6,4
functionCall;46,4,46,6,4
functionCall;47,4,47,6,4
functionCall;48,4,48,6,4
functionCall;49,4,49,6,4
functionCall;50,4,50,6,4
functionCall;51,4,51,6,4
functionCall;52,4,52,6,4
functionCall;53,4,53,6,4
objFunctionCall;37,26,37,28,4
directive;75,2,75,10,4
directive;77,3,77,6,4
symbolReference;77,13,77,14,4
objFieldReference;77,16,77,16,4
symbolReference;77,18,77,19,4
objFieldReference;77,21,77,21,4
operator;77,17,77,17,4
directive;78,3,78,6,4
symbolReference;78,13,78,14,4
objFieldReference;78,16,78,16,4
symbolReference;78,18,78,19,4
objFieldReference;78,21,78,21,4
operator;78,17,78,17,4
directive;79,3,79,6,4
symbolReference;79,13,79,14,4
objFieldReference;79,16,79,16,4
symbolReference;79,18,79,19,4
objFieldReference;79,21,79,21,4
operator;79,17,79,17,4
directive;80,3,80,9,4
symbolReference;80,17,80,18,4
symbolReference;80,20,80,21,4
operator;80,19,80,19,4
symbolReference;80,16,80,22,4
symbolReference;80,27,80,28,4
symbolReference;80,30,80,31,4
operator;80,29,80,29,4
symbolReference;80,26,80,32,4
operator;80,24,80,24,4
symbolReference;80,37,80,38,4
symbolReference;80,40,80,41,4
operator;80,39,80,39,4
symbolReference;80,36,80,42,4
operator;80,34,80,34,4
functionCall;80,11,80,14,4
directive;83,2,83,10,4
directive;85,3,85,9,4
symbolReference;86,4,86,6,4
symbolReference;86,9,86,17,4
functionCall;85,11,85,30,4
directive;90,2,90,10,4
directive;93,9,93,12,4
symbolReference;93,23,93,26,4
operator;93,27,93,28,4
symbolReference;93,34,93,37,4
operator;93,38,93,39,4
symbolReference;93,33,93,41,4
operator;93,42,93,42,4
symbolReference;93,48,93,51,4
operator;93,53,93,53,4
functionCall;93,19,93,21,4
directive;94,3,94,6,4
symbolReference;94,33,94,35,4
symbolReference;94,38,94,44,4
objFunctionCall;94,46,94,48,4
functionCall;94,19,94,31,4
directive;95,3,95,6,4
directive;97,3,97,6,4
directive;99,4,99,7,4
symbolReference;99,27,99,29,4
symbolReference;99,32,99,38,4
symbolReference;99,44,99,48,4
objFunctionCall;99,40,99,42,4
functionCall;99,13,99,25,4
directive;100,4,100,6,4
symbolReference;100,9,100,9,4
symbolReference;100,13,100,20,4
operator;100,11,100,11,4
directive;102,5,102,9,4
symbolReference;102,11,102,18,4
symbolReference;102,22,102,22,4
directive;103,5,103,9,4
symbolReference;103,11,103,27,4
symbolReference;103,31,103,35,4
symbolReference;97,24,97,28,4
symbolReference;97,32,97,38,4
objFunctionCall;97,40,97,43,4
operator;97,30,97,30,4
symbolReference;97,48,97,52,4
operator;97,53,97,54,4
directive;107,3,107,9,4
symbolReference;107,11,107,27,4
label;1,1,1,7,5
directive;2,5,2,9,5
label;3,1,3,7,5
directive;4,5,4,9,5
label;5,1,5,11,5
directive;6,5,6,9,5
symbolReference;6,11,6,15,5
symbolReference;6,18,6,23,5
label;7,1,7,7,5
directive;8,5,8,9,5
label;9,1,9,11,5
directive;10,5,10,9,5
label;11,1,11,12,5
directive;12,5,12,9,5
label;13,1,13,12,5
directive;14,5,14,9,5
label;15,1,15,12,5
directive;16,5,16,9,5
label;17,1,17,23,5
directive;18,5,18,9,5
label;19,1,19,15,5
directive;20,5,20,9,5
comment;21,1,21,30,5
label;22,1,22,17,5
directive;23,5,23,9,5
label;24,1,24,11,5
directive;25,5,25,9,5
label;26,1,26,15,5
directive;27,5,27,9,5
comment;1,1,1,40,6
comment;2,1,2,25,6
comment;3,1,3,77,6
label;6,1,6,18,6
label;8,1,8,10,6
macroExecution;9,5,9,12,6
directive;11,1,11,4,6
comment;13,5,13,53,6
comment;18,1,18,47,6
comment;26,17,26,33,6
comment;29,33,29,61,6
comment;41,1,41,54,6
comment;45,1,45,18,6
comment;50,1,50,88,6
directive;14,5,14,7,6
symbolReference;14,9,14,12,6
operator;14,13,14,14,6
mnemonic;15,9,15,11,6
symbolReference;16,13,16,16,6
symbolReference;16,20,16,23,6
operator;16,18,16,18,6
operator;16,25,16,25,6
mnemonic;16,9,16,11,6
symbolReference;19,9,19,12,6
symbolReference;19,16,19,19,6
operator;19,14,19,14,6
mnemonic;19,5,19,7,6
mnemonic;20,5,20,7,6
mnemonic;21,5,21,7,6
label;22,1,22,2,6
mnemonic;22,5,22,7,6
symbolReference;23,9,23,10,6
mnemonic;23,5,23,7,6
mnemonic;25,5,25,7,6
mnemonic;26,5,26,7,6
directive;28,5,28,8,6
symbolReference;29,13,29,16,6
symbolReference;29,20,29,23,6
operator;29,24,29,24,6
operator;29,18,29,18,6
symbolReference;29,29,29,29,6
operator;29,27,29,27,6
mnemonic;29,9,29,11,6
mnemonic;30,9,30,11,6
mnemonic;31,9,31,11,6
symbolReference;32,21,32,21,6
operator;32,22,32,22,6
operator;32,19,32,19,6
mnemonic;32,9,32,11,6
symbolReference;33,13,33,19,6
symbolReference;33,23,33,23,6
operator;33,21,33,21,6
symbolReference;33,27,33,30,6
operator;33,31,33,31,6
operator;33,25,33,25,6
mnemonic;33,9,33,11,6
symbolReference;34,13,34,27,6
symbolReference;34,31,34,31,6
operator;34,29,34,29,6
mnemonic;34,9,34,11,6
symbolReference;35,13,35,22,6
symbolReference;35,26,35,26,6
operator;35,24,35,24,6
mnemonic;35,9,35,11,6
symbolReference;36,21,36,21,6
operator;36,19,36,19,6
mnemonic;36,9,36,11,6
symbolReference;37,21,37,21,6
operator;37,22,37,22,6
operator;37,19,37,19,6
mnemonic;37,9,37,11,6
symbolReference;28,19,28,19,6
operator;28,20,28,20,6
symbolReference;28,24,28,24,6
operator;28,25,28,26,6
mnemonic;39,5,39,7,6
mnemonic;40,5,40,7,6
mnemonic;42,5,42,7,6
label;43,1,43,2,6
mnemonic;43,5,43,7,6
symbolReference;44,9,44,10,6
mnemonic;44,5,44,7,6
symbolReference;46,9,46,12,6
symbolReference;46,16,46,19,6
operator;46,14,46,14,6
mnemonic;46,5,46,7,6
mnemonic;47,5,47,7,6
symbolReference;11,18,11,21,6
operator;11,22,11,22,6
symbolReference;11,26,11,29,6
operator;11,30,11,31,6
mnemonic;51,5,51,7,6
mnemonic;52,5,52,7,6
label;53,1,53,2,6
mnemonic;53,5,53,7,6
symbolReference;54,9,54,10,6
mnemonic;54,5,54,7,6
mnemonic;56,5,56,7,6
symbolReference;57,9,57,12,6
operator;57,14,57,14,6
mnemonic;57,5,57,7,6
directive;59,1,59,7,6
directive;60,1,60,7,6
macroExecution;62,5,62,10,6
label;65,1,65,11,6
directive;66,5,66,9,6
label;67,1,67,12,6
directive;68,5,68,9,6
label;69,1,69,22,6
directive;70,5,70,9,6
label;71,1,71,5,6
directive;72,5,72,8,6
directive;73,9,73,13,6
functionCall;73,15,73,20,6
operator;73,23,73,23,6
symbolReference;72,19,72,19,6
operator;72,20,72,20,6
symbolReference;72,25,72,25,6
operator;72,26,72,27,6
label;75,1,75,3,6
directive;76,5,76,9,6
functionCall;76,20,76,25,6
operator;76,28,76,28,6
functionCall;76,14,76,18,6
operator;76,31,76,31,6
directive;77,5,77,9,6
functionCall;77,20,77,25,6
operator;77,28,77,28,6
functionCall;77,14,77,18,6
operator;77,31,77,31,6
directive;78,5,78,9,6
functionCall;78,20,78,25,6
operator;78,28,78,28,6
functionCall;78,14,78,18,6
operator;78,31,78,31,6
directive;79,5,79,9,6
functionCall;79,20,79,25,6
operator;79,28,79,28,6
functionCall;79,14,79,18,6
operator;79,31,79,31,6
label;80,1,80,5,6
directive;81,5,81,9,6
comment;82,1,82,44,6
label;83,1,83,10,6
directive;84,5,84,9,6
operator;84,19,84,19,6
functionCall;84,11,84,15,6
operator;84,23,84,23,6
operator;84,29,84,29,6
symbolReference;84,26,84,32,6
operator;84,33,84,33,6
operator;84,40,84,40,6
symbolReference;84,36,84,43,6
operator;84,44,84,44,6
operator;84,51,84,51,6
symbolReference;84,47,84,54,6
operator;84,55,84,55,6
label;86,1,86,8,6
directive;87,5,87,9,6
functionCall;87,14,87,19,6
operator;87,22,87,22,6
symbolReference;87,34,87,49,6
operator;87,51,87,51,6
symbolReference;87,33,87,58,6
operator;87,59,87,59,6
functionCall;87,27,87,31,6
operator;87,25,87,25,6
directive;88,5,88,9,6
functionCall;88,14,88,19,6
operator;88,22,88,22,6
symbolReference;88,34,88,49,6
operator;88,51,88,51,6
symbolReference;88,33,88,58,6
operator;88,59,88,59,6
functionCall;88,27,88,31,6
operator;88,25,88,25,6
directive;89,5,89,9,6
functionCall;89,14,89,19,6
operator;89,22,89,22,6
symbolReference;89,34,89,49,6
operator;89,51,89,51,6
symbolReference;89,33,89,58,6
operator;89,59,89,59,6
functionCall;89,27,89,31,6
operator;89,25,89,25,6
directive;90,5,90,9,6
functionCall;90,14,90,19,6
operator;90,22,90,22,6
symbolReference;90,34,90,49,6
operator;90,51,90,51,6
symbolReference;90,33,90,58,6
operator;90,59,90,59,6
functionCall;90,27,90,31,6
operator;90,25,90,25,6
label;92,1,92,5,6
directive;93,5,93,9,6
directive;94,5,94,9,6
directive;95,5,95,9,6
directive;96,5,96,9,6
label;98,1,98,5,6
directive;99,5,99,9,6
label;101,1,101,11,6
directive;102,5,102,9,6
functionCall;102,16,102,21,6
operator;102,24,102,24,6
operator;102,15,102,15,6
directive;103,5,103,9,6
functionCall;103,16,103,21,6
operator;103,24,103,24,6
operator;103,15,103,15,6
directive;104,5,104,9,6
functionCall;104,16,104,21,6
operator;104,24,104,24,6
operator;104,15,104,15,6
directive;105,5,105,9,6
functionCall;105,16,105,21,6
operator;105,24,105,24,6
operator;105,15,105,15,6
comment;107,10,107,18,6
label;107,1,107,8,6
directive;108,5,108,9,6
label;109,1,109,8,6
directive;110,5,110,9,6
label;111,1,111,12,6
directive;112,5,112,9,6
label;113,1,113,14,6
directive;114,5,114,9,6
label;115,1,115,7,6
directive;116,5,116,9,6
label;117,1,117,7,6
directive;118,5,118,9,6
label;119,1,119,10,6
directive;120,5,120,9,6
label;121,1,121,11,6
directive;122,5,122,9,6
symbolReference;122,16,122,23,6
symbolReference;122,25,122,25,6
operator;122,26,122,26,6
operator;122,24,122,24,6
symbolReference;122,15,122,30,6
operator;122,14,122,14,6
label;123,1,123,11,6
directive;124,5,124,9,6
symbolReference;124,16,124,23,6
symbolReference;124,25,124,25,6
operator;124,26,124,26,6
operator;124,24,124,24,6
symbolReference;124,15,124,30,6
operator;124,14,124,14,6
label;125,1,125,11,6
directive;126,5,126,9,6
label;127,1,127,13,6
directive;128,5,128,9,6
label;129,1,129,16,6
directive;130,5,130,9,6
label;133,1,133,14,6
directive;134,1,134,7,6
label;135,1,135,17,6
label;136,1,136,12,6
symbolReference;138,16,138,31,6
symbolReference;138,33,138,45,6
operator;138,32,138,32,6
symbolReference;138,15,138,46,6
operator;138,47,138,47,6
functionCall;138,10,138,13,6
mnemonic;138,5,138,7,6
mnemonic;139,5,139,7,6
label;140,1,140,5,6
symbolReference;141,9,141,21,6
mnemonic;141,5,141,7,6
symbolReference;142,9,142,24,6
mnemonic;142,5,142,7,6
mnemonic;143,5,143,7,6
symbolReference;144,9,144,12,6
mnemonic;144,5,144,7,6
symbolReference;145,9,145,12,6
operator;145,13,145,13,6
mnemonic;145,5,145,7,6
symbolReference;146,9,146,12,6
operator;146,13,146,13,6
mnemonic;146,5,146,7,6
mnemonic;147,5,147,7,6
symbolReference;148,9,148,12,6
mnemonic;148,5,148,7,6
mnemonic;149,5,149,7,6
comment;18,1,18,23,7
comment;20,1,20,23,7
comment;28,29,28,63,7
comment;80,1,80,12,7
comment;94,1,119,2,7
mnemonic;2,1,2,3,7
symbolReference;3,9,3,29,7
mnemonic;3,5,3,7,7
mnemonic;4,5,4,7,7
symbolReference;5,9,5,29,7
mnemonic;5,5,5,7,7
mnemonic;6,5,6,7,7
mnemonic;7,5,7,7,7
symbolReference;8,9,8,10,7
mnemonic;8,5,8,7,7
mnemonic;10,5,10,7,7
label;11,1,11,2,7
symbolReference;11,9,11,15,7
mnemonic;11,5,11,7,7
mnemonic;12,5,12,7,7
symbolReference;13,9,13,15,7
mnemonic;13,5,13,7,7
mnemonic;14,5,14,7,7
symbolReference;15,9,15,10,7
mnemonic;15,5,15,7,7
mnemonic;17,5,17,7,7
label;19,1,19,16,7
symbolReference;21,9,21,18,7
mnemonic;21,5,21,7,7
symbolReference;22,10,22,28,7
mnemonic;22,5,22,7,7
symbolReference;23,9,23,10,7
mnemonic;23,5,23,7,7
symbolReference;24,9,24,24,7
mnemonic;24,5,24,7,7
label;25,1,25,2,7
symbolReference;26,9,26,17,7
mnemonic;26,5,26,7,7
symbolReference;27,9,27,12,7
mnemonic;27,5,27,7,7
symbolReference;28,9,28,24,7
mnemonic;28,5,28,7,7
symbolReference;29,9,29,10,7
mnemonic;29,5,29,7,7
symbolReference;30,9,30,12,7
mnemonic;30,5,30,7,7
label;31,1,31,2,7
symbolReference;31,9,31,14,7
mnemonic;31,5,31,7,7
symbolReference;32,9,32,20,7
mnemonic;32,5,32,7,7
symbolReference;33,9,33,18,7
mnemonic;33,5,33,7,7
mnemonic;34,5,34,7,7
mnemonic;35,5,35,7,7
mnemonic;36,5,36,7,7
symbolReference;37,9,37,15,7
mnemonic;37,5,37,7,7
label;38,1,38,13,7
symbolReference;39,9,39,18,7
mnemonic;39,5,39,7,7
label;40,1,40,8,7
symbolReference;41,9,41,10,7
mnemonic;41,5,41,7,7
symbolReference;42,9,42,22,7
mnemonic;42,5,42,7,7
symbolReference;43,9,43,19,7
mnemonic;43,5,43,7,7
symbolReference;44,10,44,27,7
mnemonic;44,5,44,7,7
symbolReference;45,9,45,18,7
mnemonic;45,5,45,7,7
symbolReference;46,9,46,12,7
mnemonic;46,5,46,7,7
label;47,1,47,17,7
symbolReference;48,10,48,27,7
mnemonic;48,5,48,7,7
symbolReference;49,5,49,6,7
mnemonic;49,1,49,3,7
symbolReference;50,9,50,12,7
mnemonic;50,5,50,7,7
label;51,1,51,2,7
symbolReference;52,9,52,10,7
mnemonic;52,5,52,7,7
symbolReference;53,9,53,21,7
mnemonic;53,5,53,7,7
symbolReference;54,9,54,12,7
mnemonic;54,5,54,7,7
mnemonic;55,5,55,7,7
mnemonic;56,5,56,7,7
symbolReference;57,9,57,10,7
mnemonic;57,5,57,7,7
mnemonic;58,5,58,7,7
label;59,1,59,2,7
symbolReference;59,9,59,12,7
mnemonic;59,5,59,7,7
symbolReference;60,9,60,13,7
mnemonic;60,5,60,7,7
label;61,1,61,14,7
symbolReference;62,9,62,12,7
mnemonic;62,5,62,7,7
mnemonic;63,5,63,7,7
mnemonic;64,5,64,7,7
mnemonic;65,5,65,7,7
symbolReference;66,9,66,10,7
mnemonic;66,5,66,7,7
mnemonic;67,5,67,7,7
label;68,1,68,2,7
symbolReference;68,9,68,12,7
mnemonic;68,5,68,7,7
label;69,1,69,6,7
symbolReference;70,9,70,19,7
mnemonic;70,5,70,7,7
symbolReference;71,9,71,12,7
mnemonic;71,5,71,7,7
symbolReference;72,10,72,28,7
mnemonic;72,5,72,7,7
symbolReference;73,9,73,18,7
mnemonic;73,5,73,7,7
label;74,1,74,5,7
mnemonic;75,5,75,7,7
mnemonic;76,5,76,7,7
symbolReference;77,9,77,11,7
mnemonic;77,5,77,7,7
symbolReference;78,9,78,23,7
mnemonic;78,5,78,7,7
label;79,1,79,4,7
symbolReference;81,9,81,23,7
mnemonic;81,5,81,7,7
symbolReference;82,9,82,18,7
mnemonic;82,5,82,7,7
mnemonic;83,5,83,7,7
label;84,1,84,2,7
symbolReference;84,9,84,12,7
mnemonic;84,5,84,7,7
mnemonic;85,5,85,7,7
mnemonic;86,5,86,7,7
symbolReference;87,9,87,12,7
mnemonic;87,5,87,7,7
symbolReference;88,9,88,17,7
mnemonic;88,5,88,7,7
mnemonic;89,5,89,7,7
symbolReference;90,9,90,10,7
mnemonic;90,5,90,7,7
label;91,1,91,11,7
mnemonic;92,1,92,3,7
comment;2,1,39,6,8
label;1,1,1,9,8
label;41,1,41,14,8
symbolReference;42,9,42,15,8
mnemonic;42,5,42,7,8
mnemonic;43,5,43,7,8
label;45,1,45,11,8
mnemonic;46,5,46,7,8
symbolReference;47,10,47,19,8
mnemonic;47,5,47,7,8
symbolReference;48,9,48,17,8
mnemonic;48,5,48,7,8
symbolReference;49,6,49,16,8
mnemonic;49,2,49,4,8
comment;51,2,51,25,8
symbolReference;50,7,50,22,8
mnemonic;50,2,50,4,8
symbolReference;52,9,52,10,8
mnemonic;52,5,52,7,8
symbolReference;53,6,53,16,8
mnemonic;53,2,53,4,8
label;54,1,54,2,8
symbolReference;54,9,54,15,8
mnemonic;54,5,54,7,8
label;55,1,55,10,8
symbolReference;56,10,56,18,8
mnemonic;56,5,56,7,8
comment;58,1,58,12,8
symbolReference;57,9,57,15,8
mnemonic;57,5,57,7,8
symbolReference;59,6,59,16,8
mnemonic;59,2,59,4,8
comment;61,2,61,25,8
symbolReference;60,7,60,22,8
mnemonic;60,2,60,4,8
symbolReference;62,6,62,12,8
mnemonic;62,2,62,4,8
symbolReference;63,6,63,16,8
mnemonic;63,2,63,4,8
label;64,1,64,8,8
comment;94,1,94,18,8
comment;95,1,95,20,8
comment;104,1,104,31,8
comment;108,22,108,40,8
comment;119,1,119,20,8
label;66,1,66,16,8
symbolReference;68,6,68,16,8
mnemonic;68,2,68,4,8
symbolReference;69,6,69,11,8
mnemonic;69,2,69,4,8
mnemonic;70,2,70,4,8
mnemonic;71,2,71,4,8
mnemonic;72,2,72,4,8
symbolReference;73,6,73,8,8
operator;73,10,73,10,8
mnemonic;73,2,73,4,8
symbolReference;74,6,74,12,8
operator;74,13,74,13,8
mnemonic;74,2,74,4,8
mnemonic;75,2,75,4,8
label;76,1,76,4,8
mnemonic;77,2,77,4,8
symbolReference;78,6,78,7,8
mnemonic;78,2,78,4,8
symbolReference;79,6,79,12,8
mnemonic;79,2,79,4,8
label;80,1,80,2,8
symbolReference;80,9,80,15,8
operator;80,16,80,16,8
mnemonic;80,5,80,7,8
symbolReference;81,6,81,14,8
mnemonic;81,2,81,4,8
label;82,1,82,7,8
mnemonic;83,2,83,4,8
symbolReference;84,6,84,12,8
operator;84,13,84,13,8
mnemonic;84,2,84,4,8
symbolReference;85,6,85,7,8
mnemonic;85,2,85,4,8
symbolReference;86,6,86,12,8
mnemonic;86,2,86,4,8
label;87,1,87,2,8
symbolReference;87,8,87,14,8
operator;87,15,87,15,8
mnemonic;87,4,87,6,8
label;88,1,88,10,8
symbolReference;89,6,89,12,8
mnemonic;89,2,89,4,8
mnemonic;90,2,90,4,8
symbolReference;91,6,91,12,8
operator;91,13,91,13,8
mnemonic;91,2,91,4,8
mnemonic;92,2,92,4,8
mnemonic;93,2,93,4,8
mnemonic;96,2,96,4,8
mnemonic;97,2,97,4,8
symbolReference;98,6,98,12,8
mnemonic;98,2,98,4,8
mnemonic;99,2,99,4,8
symbolReference;100,6,100,7,8
mnemonic;100,2,100,4,8
mnemonic;101,2,101,4,8
label;102,1,102,2,8
mnemonic;102,4,102,6,8
symbolReference;106,6,106,12,8
mnemonic;106,2,106,4,8
mnemonic;107,2,107,4,8
symbolReference;108,6,108,19,8
mnemonic;108,2,108,4,8
symbolReference;110,6,110,12,8
operator;110,13,110,13,8
mnemonic;110,2,110,4,8
operator;111,11,111,11,8
symbolReference;111,7,111,15,8
mnemonic;111,2,111,4,8
symbolReference;112,6,112,15,8
mnemonic;112,2,112,4,8
operator;113,14,113,14,8
symbolReference;113,10,113,18,8
mnemonic;113,5,113,7,8
symbolReference;114,9,114,15,8
operator;114,16,114,16,8
mnemonic;114,5,114,7,8
symbolReference;115,6,115,16,8
mnemonic;115,2,115,4,8
label;116,1,116,15,8
mnemonic;117,2,117,4,8
symbolReference;118,6,118,15,8
mnemonic;118,2,118,4,8
symbolReference;120,6,120,12,8
operator;120,13,120,13,8
mnemonic;120,2,120,4,8
mnemonic;121,2,121,4,8
symbolReference;122,6,122,7,8
mnemonic;122,2,122,4,8
mnemonic;123,5,123,7,8
symbolReference;124,9,124,15,8
operator;124,16,124,16,8
mnemonic;124,5,124,7,8
symbolReference;125,9,125,19,8
mnemonic;125,5,125,7,8
label;126,1,126,2,8
symbolReference;127,6,127,15,8
mnemonic;127,2,127,4,8
label;128,1,128,12,8
symbolReference;129,6,129,16,8
mnemonic;129,2,129,4,8
symbolReference;130,9,130,10,8
mnemonic;130,5,130,7,8
mnemonic;131,5,131,7,8
mnemonic;132,2,132,4,8
mnemonic;133,2,133,4,8
mnemonic;134,2,134,4,8
symbolReference;135,9,135,18,8
mnemonic;135,5,135,7,8
label;136,1,136,2,8
mnemonic;136,4,136,6,8
mnemonic;137,2,137,4,8
mnemonic;138,2,138,4,8
mnemonic;139,5,139,7,8
label;140,1,140,11,8
symbolReference;141,9,141,19,8
mnemonic;141,5,141,7,8
label;143,1,143,11,8
label;145,1,145,11,8
mnemonic;146,5,146,7,8
symbolReference;147,10,147,18,8
mnemonic;147,5,147,7,8
comment;150,1,150,13,8
symbolReference;148,9,148,21,8
mnemonic;148,5,148,7,8
symbolReference;151,9,151,18,8
mnemonic;151,5,151,7,8
symbolReference;152,9,152,17,8
mnemonic;152,5,152,7,8
symbolReference;153,9,153,21,8
mnemonic;153,5,153,7,8
comment;155,1,155,37,8
comment;156,1,156,22,8
comment;157,1,157,73,8
label;154,1,154,10,8
symbolReference;158,9,158,15,8
operator;158,16,158,16,8
mnemonic;158,5,158,7,8
symbolReference;159,9,159,14,8
mnemonic;159,5,159,7,8
symbolReference;160,9,160,15,8
mnemonic;160,5,160,7,8
mnemonic;161,5,161,7,8
symbolReference;162,9,162,14,8
mnemonic;162,5,162,7,8
comment;163,17,163,63,8
symbolReference;163,9,163,14,8
mnemonic;163,5,163,7,8
mnemonic;164,5,164,7,8
symbolReference;165,9,165,14,8
mnemonic;165,5,165,7,8
symbolReference;166,9,166,14,8
mnemonic;166,5,166,7,8
symbolReference;167,9,167,14,8
mnemonic;167,5,167,7,8
symbolReference;168,9,168,14,8
mnemonic;168,5,168,7,8
mnemonic;169,5,169,7,8
mnemonic;170,5,170,7,8
symbolReference;171,9,171,14,8
mnemonic;171,5,171,7,8
symbolReference;172,9,172,17,8
operator;172,19,172,19,8
mnemonic;172,5,172,7,8
symbolReference;173,11,173,23,8
operator;173,24,173,24,8
symbolReference;173,28,173,35,8
operator;173,27,173,27,8
operator;173,10,173,10,8
mnemonic;173,5,173,7,8
mnemonic;174,5,174,7,8
label;175,1,175,10,8
mnemonic;176,5,176,7,8
symbolReference;177,9,177,20,8
mnemonic;177,5,177,7,8
symbolReference;178,10,178,22,8
mnemonic;178,5,178,7,8
symbolReference;179,9,179,14,8
mnemonic;179,5,179,7,8
symbolReference;180,11,180,23,8
operator;180,24,180,24,8
symbolReference;180,28,180,35,8
operator;180,27,180,27,8
operator;180,10,180,10,8
mnemonic;180,5,180,7,8
mnemonic;181,5,181,7,8
symbolReference;182,9,182,20,8
operator;182,22,182,22,8
mnemonic;182,5,182,7,8
symbolReference;183,10,183,27,8
mnemonic;183,5,183,7,8
comment;185,9,185,40,8
symbolReference;184,9,184,18,8
mnemonic;184,5,184,7,8
mnemonic;185,5,185,7,8
mnemonic;186,5,186,7,8
mnemonic;187,5,187,7,8
mnemonic;188,5,188,7,8
comment;189,29,189,71,8
symbolReference;189,10,189,24,8
mnemonic;189,5,189,7,8
symbolReference;190,9,190,17,8
mnemonic;190,5,190,7,8
label;192,1,192,14,8
mnemonic;195,5,195,7,8
label;196,1,196,2,8
symbolReference;196,9,196,12,8
mnemonic;196,5,196,7,8
symbolReference;197,9,197,13,8
mnemonic;197,5,197,7,8
mnemonic;198,5,198,7,8
symbolReference;199,9,199,11,8
operator;199,12,199,12,8
mnemonic;199,5,199,7,8
symbolReference;200,9,200,12,8
mnemonic;200,5,200,7,8
label;201,1,201,4,8
mnemonic;202,5,202,7,8
symbolReference;203,9,203,12,8
mnemonic;203,5,203,7,8
symbolReference;204,9,204,16,8
operator;204,20,204,20,8
operator;204,17,204,17,8
mnemonic;204,5,204,7,8
label;205,1,205,6,8
mnemonic;206,5,206,7,8
symbolReference;207,9,207,10,8
mnemonic;207,5,207,7,8
label;209,1,209,12,8
symbolReference;210,9,210,18,8
mnemonic;210,5,210,7,8
symbolReference;211,10,211,27,8
mnemonic;211,5,211,7,8
symbolReference;212,9,212,17,8
mnemonic;212,5,212,7,8
symbolReference;213,10,213,29,8
mnemonic;213,5,213,7,8
symbolReference;214,9,214,27,8
mnemonic;214,5,214,7,8
symbolReference;215,9,215,17,8
mnemonic;215,5,215,7,8
comment;217,1,217,12,8
label;216,1,216,10,8
mnemonic;218,5,218,7,8
mnemonic;219,5,219,7,8
symbolReference;220,10,220,21,8
mnemonic;220,5,220,7,8
mnemonic;221,5,221,7,8
comment;223,1,223,13,8
symbolReference;222,10,222,21,8
mnemonic;222,5,222,7,8
symbolReference;224,9,224,20,8
mnemonic;224,5,224,7,8
mnemonic;225,5,225,7,8
mnemonic;226,5,226,7,8
symbolReference;227,9,227,20,8
mnemonic;227,5,227,7,8
symbolReference;228,9,228,20,8
operator;228,22,228,22,8
mnemonic;228,5,228,7,8
mnemonic;229,5,229,7,8
symbolReference;230,9,230,20,8
operator;230,22,230,22,8
mnemonic;230,5,230,7,8
symbolReference;231,11,231,18,8
operator;231,10,231,10,8
mnemonic;231,5,231,7,8
comment;233,1,233,19,8
symbolReference;232,9,232,32,8
mnemonic;232,5,232,7,8
symbolReference;234,10,234,25,8
mnemonic;234,5,234,7,8
symbolReference;235,9,235,18,8
mnemonic;235,5,235,7,8
symbolReference;236,9,236,17,8
mnemonic;236,5,236,7,8
comment;238,5,238,52,8
label;237,1,237,25,8
comment;239,11,239,19,8
mnemonic;239,5,239,7,8
symbolReference;240,10,240,21,8
mnemonic;240,5,240,7,8
mnemonic;241,5,241,7,8
comment;243,1,243,19,8
symbolReference;242,9,242,15,8
mnemonic;242,5,242,7,8
symbolReference;244,9,244,17,8
mnemonic;244,5,244,7,8
mnemonic;245,5,245,7,8
symbolReference;246,10,246,21,8
mnemonic;246,5,246,7,8
mnemonic;247,5,247,7,8
symbolReference;248,10,248,21,8
mnemonic;248,5,248,7,8
symbolReference;250,9,250,17,8
mnemonic;250,5,250,7,8
label;251,1,251,20,8
mnemonic;252,5,252,7,8
symbolReference;253,10,253,21,8
mnemonic;253,5,253,7,8
mnemonic;254,5,254,7,8
mnemonic;255,5,255,7,8
symbolReference;256,10,256,21,8
mnemonic;256,5,256,7,8
mnemonic;257,5,257,7,8
symbolReference;258,10,258,21,8
mnemonic;258,5,258,7,8
symbolReference;259,10,259,32,8
mnemonic;259,5,259,7,8
symbolReference;260,9,260,10,8
mnemonic;260,5,260,7,8
symbolReference;261,10,261,25,8
mnemonic;261,5,261,7,8
comment;263,1,263,25,8
symbolReference;262,9,262,18,8
mnemonic;262,5,262,7,8
mnemonic;264,5,264,7,8
symbolReference;265,9,265,30,8
mnemonic;265,5,265,7,8
symbolReference;266,10,266,21,8
mnemonic;266,5,266,7,8
mnemonic;267,5,267,7,8
symbolReference;268,9,268,30,8
operator;268,31,268,31,8
mnemonic;268,5,268,7,8
symbolReference;269,10,269,21,8
mnemonic;269,5,269,7,8
label;270,1,270,2,8
symbolReference;270,9,270,17,8
mnemonic;270,5,270,7,8
comment;272,1,272,22,8
label;271,1,271,8,8
mnemonic;273,5,273,7,8
symbolReference;274,10,274,21,8
mnemonic;274,5,274,7,8
symbolReference;275,9,275,30,8
mnemonic;275,5,275,7,8
mnemonic;276,5,276,7,8
symbolReference;277,10,277,21,8
mnemonic;277,5,277,7,8
symbolReference;278,9,278,30,8
operator;278,31,278,31,8
mnemonic;278,5,278,7,8
symbolReference;280,10,280,34,8
mnemonic;280,5,280,7,8
symbolReference;281,10,281,21,8
mnemonic;281,5,281,7,8
mnemonic;282,5,282,7,8
symbolReference;283,10,283,21,8
mnemonic;283,5,283,7,8
symbolReference;284,10,284,29,8
mnemonic;284,5,284,7,8
symbolReference;285,9,285,18,8
mnemonic;285,5,285,7,8
label;287,1,287,10,8
label;1,1,1,8,9
mnemonic;2,5,2,7,9
mnemonic;4,5,4,7,9
mnemonic;5,5,5,7,9
mnemonic;7,5,7,7,9
comment;8,16,8,86,9
mnemonic;8,5,8,7,9
comment;9,16,9,107,9
comment;10,12,10,22,9
mnemonic;9,5,9,7,9
comment;12,16,12,79,9
mnemonic;12,5,12,7,9
comment;13,16,13,104,9
comment;14,12,14,43,9
mnemonic;13,5,13,7,9
symbolReference;16,11,16,22,9
operator;16,10,16,10,9
mnemonic;16,5,16,7,9
mnemonic;17,5,17,7,9
symbolReference;18,11,18,22,9
operator;18,10,18,10,9
mnemonic;18,5,18,7,9
mnemonic;19,5,19,7,9
symbolReference;21,9,21,12,9
mnemonic;21,5,21,7,9
mnemonic;22,5,22,7,9
mnemonic;23,5,23,7,9
mnemonic;24,5,24,7,9
mnemonic;25,5,25,7,9
mnemonic;26,5,26,7,9
mnemonic;27,5,27,7,9
mnemonic;28,5,28,7,9
mnemonic;29,5,29,7,9
mnemonic;30,5,30,7,9
mnemonic;31,5,31,7,9
label;34,1,34,13,9
comment;36,5,36,16,9
macroExecution;35,5,35,12,9
macroExecution;37,5,37,10,9
label;40,1,40,14,9
macroExecution;43,5,43,12,9
symbolReference;44,9,44,19,9
mnemonic;44,5,44,7,9
mnemonic;45,5,45,7,9
symbolReference;46,9,46,10,9
mnemonic;46,5,46,7,9
mnemonic;47,5,47,7,9
mnemonic;48,5,48,7,9
mnemonic;49,5,49,7,9
symbolReference;50,9,50,11,9
mnemonic;50,5,50,7,9
label;51,1,51,2,9
mnemonic;53,5,53,7,9
mnemonic;54,5,54,7,9
symbolReference;55,10,55,21,9
mnemonic;55,5,55,7,9
mnemonic;56,5,56,7,9
symbolReference;57,10,57,24,9
mnemonic;57,5,57,7,9
mnemonic;58,5,58,7,9
mnemonic;59,5,59,7,9
symbolReference;60,9,60,11,9
mnemonic;60,5,60,7,9
symbolReference;61,9,61,19,9
mnemonic;61,5,61,7,9
symbolReference;62,9,62,11,9
mnemonic;62,5,62,7,9
label;64,1,64,4,9
macroExecution;65,5,65,10,9
label;67,1,67,12,9
directive;68,5,68,9,9
label;69,1,69,10,9
directive;70,5,70,9,9
comment;3,1,3,54,10
comment;4,1,4,34,10
comment;5,1,5,38,10
comment;6,1,6,33,10
comment;7,1,7,27,10
label;8,1,8,11,10
directive;9,5,9,13,10
comment;10,10,10,53,10
directive;11,5,11,9,10
directive;12,5,12,9,10
directive;13,5,13,9,10
directive;14,5,14,9,10
directive;15,5,15,9,10
directive;16,5,16,9,10
directive;17,5,17,9,10
directive;18,5,18,9,10
directive;19,5,19,9,10
directive;20,5,20,9,10
directive;21,5,21,9,10
directive;22,5,22,9,10
directive;23,5,23,9,10
directive;24,5,24,9,10
directive;25,5,25,9,10
directive;26,5,26,9,10
directive;27,5,27,9,10
directive;28,5,28,9,10
directive;29,5,29,9,10
directive;30,5,30,9,10
directive;31,5,31,9,10
directive;32,5,32,9,10
directive;33,5,33,9,10
directive;34,5,34,9,10
directive;35,5,35,9,10
directive;37,5,37,9,10
symbolReference;37,16,37,20,10
comment;1,1,1,11,11
comment;2,1,2,10,11
comment;3,1,3,12,11
comment;20,1,20,13,11
label;4,1,4,9,11
symbolReference;6,9,6,16,11
mnemonic;6,5,6,7,11
symbolReference;7,9,7,19,11
mnemonic;7,5,7,7,11
symbolReference;8,9,8,19,11
mnemonic;8,5,8,7,11
symbolReference;9,9,9,19,11
mnemonic;9,5,9,7,11
symbolReference;10,9,10,11,11
mnemonic;10,5,10,7,11
symbolReference;11,9,11,20,11
mnemonic;11,5,11,7,11
mnemonic;12,5,12,7,11
mnemonic;13,5,13,7,11
symbolReference;14,18,14,25,11
operator;14,17,14,17,11
symbolReference;14,11,14,26,11
operator;14,10,14,10,11
mnemonic;14,5,14,7,11
mnemonic;15,5,15,7,11
symbolReference;16,9,16,20,11
mnemonic;16,5,16,7,11
mnemonic;17,5,17,7,11
mnemonic;18,5,18,7,11
mnemonic;21,5,21,7,11
label;22,1,22,5,11
symbolReference;23,9,23,19,11
mnemonic;23,5,23,7,11
mnemonic;24,5,24,7,11
symbolReference;25,9,25,11,11
mnemonic;25,5,25,7,11
mnemonic;26,5,26,7,11
mnemonic;27,5,27,7,11
mnemonic;28,5,28,7,11
mnemonic;29,5,29,7,11
mnemonic;30,5,30,7,11
mnemonic;31,5,31,7,11
symbolReference;32,9,32,10,11
mnemonic;32,5,32,7,11
mnemonic;33,5,33,7,11
symbolReference;34,9,34,17,11
mnemonic;34,5,34,7,11
label;35,1,35,2,11
mnemonic;36,5,36,7,11
mnemonic;37,5,37,7,11
operator;38,12,38,12,11
mnemonic;38,5,38,7,11
mnemonic;39,5,39,7,11
label;40,1,40,10,11
mnemonic;41,5,41,7,11
symbolReference;42,9,42,12,11
mnemonic;42,5,42,7,11
mnemonic;43,5,43,7,11
label;44,1,44,4,11
directive;45,5,45,9,11
label;48,1,48,16,11
symbolReference;50,9,50,13,11
mnemonic;50,5,50,7,11
symbolReference;51,9,51,14,11
mnemonic;51,5,51,7,11
mnemonic;52,5,52,7,11
symbolReference;53,9,53,18,11
mnemonic;53,5,53,7,11
symbolReference;54,9,54,11,11
operator;54,12,54,12,11
mnemonic;54,5,54,7,11
symbolReference;55,9,55,18,11
mnemonic;55,5,55,7,11
symbolReference;56,9,56,13,11
mnemonic;56,5,56,7,11
label;57,1,57,5,11
symbolReference;58,9,58,13,11
mnemonic;58,5,58,7,11
symbolReference;59,9,59,18,11
mnemonic;59,5,59,7,11
mnemonic;60,5,60,7,11
symbolReference;61,9,61,14,11
mnemonic;61,5,61,7,11
symbolReference;62,9,62,14,11
mnemonic;62,5,62,7,11
mnemonic;63,5,63,7,11
mnemonic;64,5,64,7,11
symbolReference;65,9,65,16,11
mnemonic;65,5,65,7,11
symbolReference;66,9,66,13,11
mnemonic;66,5,66,7,11
mnemonic;67,5,67,7,11
symbolReference;68,9,68,13,11
mnemonic;68,5,68,7,11
label;69,1,69,4,11
mnemonic;70,5,70,7,11
symbolReference;71,9,71,12,11
mnemonic;71,5,71,7,11
mnemonic;72,5,72,7,11
label;73,1,73,6,11
directive;74,5,74,9,11
label;79,1,79,16,11
mnemonic;80,5,80,7,11
mnemonic;81,5,81,7,11
operator;83,10,83,10,11
mnemonic;83,5,83,7,11
symbolReference;84,9,84,15,11
mnemonic;84,5,84,7,11
operator;85,10,85,10,11
mnemonic;85,5,85,7,11
comment;88,5,88,7,11
symbolReference;86,9,86,15,11
operator;86,16,86,16,11
mnemonic;86,5,86,7,11
symbolReference;89,10,89,14,11
mnemonic;89,5,89,7,11
mnemonic;90,5,90,7,11
mnemonic;91,5,91,7,11
operator;92,14,92,14,11
mnemonic;92,5,92,7,11
symbolReference;93,11,93,26,11
operator;93,27,93,27,11
symbolReference;93,10,93,30,11
operator;93,31,93,31,11
mnemonic;93,5,93,7,11
comment;96,1,96,14,11
symbolReference;94,9,94,23,11
operator;94,24,94,24,11
mnemonic;94,5,94,7,11
symbolReference;97,10,97,25,11
mnemonic;97,5,97,7,11
symbolReference;98,9,98,18,11
mnemonic;98,5,98,7,11
mnemonic;99,5,99,7,11
label;101,1,101,10,11
symbolReference;102,7,102,12,11
mnemonic;102,3,102,5,11
mnemonic;103,3,103,5,11
symbolReference;104,7,104,12,11
mnemonic;104,3,104,5,11
symbolReference;105,7,105,11,11
mnemonic;105,3,105,5,11
mnemonic;106,3,106,5,11
label;107,1,107,6,11
symbolReference;108,7,108,12,11
mnemonic;108,3,108,5,11
symbolReference;109,7,109,12,11
mnemonic;109,3,109,5,11
symbolReference;110,7,110,10,11
mnemonic;110,3,110,5,11
mnemonic;111,3,111,5,11
label;112,1,112,7,11
directive;113,5,113,9,11
functionCall;113,11,113,16,11
operator;113,19,113,19,11
operator;113,23,113,23,11
label;114,1,114,7,11
directive;115,5,115,9,11
functionCall;115,11,115,16,11
operator;115,19,115,19,11
operator;115,23,115,23,11
label;116,1,116,5,11
directive;117,5,117,9,11
comment;1,1,24,2,12
comment;26,1,26,34,12
comment;27,1,27,10,12
comment;28,1,28,34,12
comment;30,1,36,62,12
directive;37,1,37,6,12
comment;38,20,38,35,12
comment;39,16,39,27,12
comment;40,16,40,22,12
comment;44,14,44,58,12
comment;47,1,53,62,12
directive;38,2,38,6,12
symbolReference;38,8,38,17,12
directive;39,5,39,9,12
directive;40,5,40,9,12
directive;41,2,41,6,12
symbolReference;41,20,41,26,12
functionCall;41,8,41,18,12
directive;42,2,42,6,12
label;43,1,43,11,12
directive;44,5,44,9,12
directive;54,1,54,6,12
comment;56,20,56,35,12
comment;57,16,57,27,12
comment;58,16,58,22,12
comment;62,14,62,58,12
directive;55,2,55,2,12
directive;56,2,56,6,12
symbolReference;56,8,56,17,12
directive;57,5,57,9,12
directive;58,5,58,9,12
directive;59,2,59,6,12
symbolReference;59,20,59,26,12
functionCall;59,8,59,18,12
directive;60,2,60,6,12
label;61,1,61,11,12
directive;62,5,62,9,12
directive;63,5,63,5,12
[files]
0;D:\Projecten\C64\personal_space_invaders\main.asm
1;D:\Projecten\C64\personal_space_invaders\macros.asm
2;D:\Projecten\C64\personal_space_invaders\constants.asm
3;D:\Projecten\C64\personal_space_invaders\titleScreen.asm
4;D:\Projecten\C64\personal_space_invaders\colorMatch.asm
5;D:\Projecten\C64\personal_space_invaders\levelData.asm
6;D:\Projecten\C64\personal_space_invaders\multiplexSpriteIrq.asm
7;D:\Projecten\C64\personal_space_invaders\alienUpdate.asm
8;D:\Projecten\C64\personal_space_invaders\gameLoop.asm
9;D:\Projecten\C64\personal_space_invaders\interrupt.asm
10;D:\Projecten\C64\personal_space_invaders\resources\instrcutionScreen.asm
11;D:\Projecten\C64\personal_space_invaders\routines.asm
12;KickAss.jar:/include/autoinclude.asm
